{"books": [
	{
		"author": null,
		"created_at": "2013-02-06T16:33:20+08:00",
		"id": 26,
		"image": "http://img3.douban.com/mpic/s4483293.jpg",
		"isbn": "9787111316657",
		"name": "\u91d1\u77ff",
		"updated_at": "2013-02-06T16:33:20+08:00"
	},
	{
		"author": null,
		"created_at": "2013-02-06T16:34:01+08:00",
		"id": 27,
		"image": "http://img3.douban.com/mpic/s5822197.jpg",
		"isbn": "9787506021395",
		"name": "\u4e30\u7530\u73b0\u573a\u7ba1\u7406\u65b9\u5f0f",
		"updated_at": "2013-02-06T16:34:01+08:00"
	},
	{
		"author": null,
		"created_at": "2013-02-06T16:34:30+08:00",
		"id": 28,
		"image": "http://img3.douban.com/mpic/s5779456.jpg",
		"isbn": "9787500590842",
		"name": "\u4e30\u7530\u6c7d\u8f66\u7cbe\u76ca\u6a21\u5f0f\u7684\u5b9e\u8df5",
		"updated_at": "2013-02-06T16:34:30+08:00"
	},
	{
		"author": null,
		"created_at": "2013-02-06T16:34:39+08:00",
		"id": 29,
		"image": "http://img3.douban.com/mpic/s4655120.jpg",
		"isbn": "9787111330134",
		"name": "\u4e30\u7530\u6a21\u5f0f",
		"updated_at": "2013-02-06T16:34:39+08:00"
	},
	{
		"author": null,
		"created_at": "2013-02-06T16:34:52+08:00",
		"id": 30,
		"image": "http://img3.douban.com/mpic/s8855346.jpg",
		"isbn": "9787111357933",
		"name": "\u4f1a\u601d\u8003\u7684\u4e30\u7530\u73b0\u573a",
		"updated_at": "2013-02-06T16:34:52+08:00"
	},
	{
		"author": null,
		"created_at": "2013-02-06T16:35:07+08:00",
		"id": 31,
		"image": "http://img3.douban.com/mpic/s21572450.jpg",
		"isbn": "9787506049856",
		"name": "\u4e30\u7530\u73b0\u573a\u7684\u4eba\u624d\u57f9\u80b2",
		"updated_at": "2013-02-06T16:35:07+08:00"
	},
	{
		"author": null,
		"created_at": "2013-02-06T16:35:31+08:00",
		"id": 32,
		"image": "http://img3.douban.com/mpic/s1222816.jpg",
		"isbn": "9787532734191",
		"name": "\u6d77\u8fb9\u7684\u5361\u592b\u5361",
		"updated_at": "2013-02-06T16:35:31+08:00"
	},
	{
		"author": null,
		"created_at": "2013-02-06T16:36:10+08:00",
		"id": 33,
		"image": "http://img3.douban.com/mpic/s4130817.jpg",
		"isbn": "9787115218858",
		"name": "\u8f6f\u4ef6\u8c03\u8bd5\u5b9e\u6218",
		"updated_at": "2013-02-06T16:36:10+08:00"
	},
	{
		"author": null,
		"created_at": "2013-02-06T16:36:24+08:00",
		"id": 34,
		"image": "http://img3.douban.com/mpic/s6883275.jpg",
		"isbn": "9787115259653",
		"name": "\u8f6f\u4ef6\u9879\u76ee\u6210\u529f\u4e4b\u9053",
		"updated_at": "2013-02-06T16:36:24+08:00"
	},
	{
		"author": null,
		"created_at": "2013-02-06T16:36:39+08:00",
		"id": 35,
		"image": "http://img3.douban.com/mpic/s4409220.jpg",
		"isbn": "9787111301936",
		"name": "\u8f6f\u4ef6\u9879\u76ee\u7ba1\u7406\u4e0e\u654f\u6377\u65b9\u6cd5",
		"updated_at": "2013-02-06T16:36:39+08:00"
	}
], "current_page": "1", "total_page": 11, "total_count": 106}
